module github.com/gohornet/hornet

go 1.18

replace github.com/linxGnu/grocksdb => github.com/gohornet/grocksdb v1.6.38-0.20211012114404-55f425442260

require (
	github.com/bits-and-blooms/bitset v1.2.2
	github.com/blang/vfs v1.0.0
	github.com/cockroachdb/pebble v0.0.0-20220408205130-c55c1d80c374
	github.com/docker/docker v20.10.14+incompatible
	github.com/docker/go-connections v0.4.0
	github.com/dustin/go-humanize v1.0.0
	github.com/eclipse/paho.mqtt.golang v1.3.5
	github.com/fhmq/hmq v0.0.0-20220409045343-c53d8f8a0daa
	github.com/go-echarts/go-echarts v1.0.0
	github.com/gobuffalo/packr/v2 v2.8.3
	github.com/golang-jwt/jwt v3.2.2+incompatible
	github.com/gorilla/websocket v1.5.0
	github.com/hashicorp/go-version v1.4.0
	github.com/iotaledger/go-ds-kvstore v0.0.0-20220404122649-445475b91fcf
	github.com/iotaledger/hive.go v0.0.0-20220408130540-d344e455dd23
	github.com/iotaledger/iota.go v1.0.0
	github.com/iotaledger/iota.go/v2 v2.0.2-0.20220225080023-871c779a63cb
	github.com/ipfs/go-datastore v0.5.1
	github.com/ipfs/go-ds-badger v0.3.0
	github.com/labstack/echo/v4 v4.7.2
	github.com/labstack/gommon v0.3.2-0.20220410183028-64116baad496
	github.com/libp2p/go-libp2p v0.18.0
	github.com/libp2p/go-libp2p-connmgr v0.3.1
	github.com/libp2p/go-libp2p-core v0.14.0
	github.com/libp2p/go-libp2p-peerstore v0.6.0
	github.com/mr-tron/base58 v1.2.0
	github.com/multiformats/go-multiaddr v0.5.0
	github.com/pelletier/go-toml/v2 v2.0.0-beta.7
	github.com/pkg/errors v0.9.1
	github.com/prometheus/client_golang v1.12.1
	github.com/shirou/gopsutil v3.21.11+incompatible
	github.com/spf13/pflag v1.0.5
	github.com/stretchr/testify v1.7.1
	github.com/tcnksm/go-latest v0.0.0-20170313132115-e3007ae9052e
	github.com/wollac/iota-crypto-demo v0.0.0-20211124150533-68dd13b59838
	go.uber.org/atomic v1.9.0
	go.uber.org/dig v1.14.1
	golang.org/x/crypto v0.0.0-20220408190544-5352b0902921
	golang.org/x/net v0.0.0-20220407224826-aac1ed45d8e3
	golang.org/x/term v0.0.0-20210927222741-03fcf44c2211
	golang.org/x/time v0.0.0-20220224211638-0e9765cccd65
)

require (
	filippo.io/edwards25519 v1.0.0-rc.1 // indirect
	github.com/AndreasBriese/bbloom v0.0.0-20190825152654-46b345b51c96 // indirect
	github.com/DataDog/zstd v1.5.0 // indirect
	github.com/Microsoft/go-winio v0.5.0 // indirect
	github.com/ReneKroon/ttlcache/v2 v2.11.0 // indirect
	github.com/Shopify/sarama v1.32.0 // indirect
	github.com/benbjohnson/clock v1.3.0 // indirect
	github.com/beorn7/perks v1.0.1 // indirect
	github.com/bitly/go-simplejson v0.5.0 // indirect
	github.com/btcsuite/btcd v0.22.0-beta // indirect
	github.com/cespare/xxhash v1.1.0 // indirect
	github.com/cespare/xxhash/v2 v2.1.2 // indirect
	github.com/cheekybits/genny v1.0.0 // indirect
	github.com/cockroachdb/errors v1.9.0 // indirect
	github.com/cockroachdb/logtags v0.0.0-20211118104740-dabe8e521a4f // indirect
	github.com/cockroachdb/redact v1.1.3 // indirect
	github.com/containerd/cgroups v1.0.3 // indirect
	github.com/containerd/containerd v1.5.5 // indirect
	github.com/coreos/go-systemd/v22 v22.3.2 // indirect
	github.com/davecgh/go-spew v1.1.1 // indirect
	github.com/davidlazar/go-crypto v0.0.0-20200604182044-b73af7476f6c // indirect
	github.com/dgraph-io/badger v1.6.2 // indirect
	github.com/dgraph-io/badger/v2 v2.2007.4 // indirect
	github.com/dgraph-io/ristretto v0.1.0 // indirect
	github.com/dgryski/go-farm v0.0.0-20190423205320-6a90982ecee2 // indirect
	github.com/docker/distribution v2.7.1+incompatible // indirect
	github.com/docker/go-units v0.4.0 // indirect
	github.com/eapache/go-resiliency v1.2.0 // indirect
	github.com/eapache/go-xerial-snappy v0.0.0-20180814174437-776d5712da21 // indirect
	github.com/eapache/queue v1.1.0 // indirect
	github.com/elastic/gosigar v0.14.2 // indirect
	github.com/emirpasic/gods v1.12.1 // indirect
	github.com/fatih/structs v1.1.0 // indirect
	github.com/flynn/noise v1.0.0 // indirect
	github.com/francoispqt/gojay v1.2.13 // indirect
	github.com/fsnotify/fsnotify v1.5.1 // indirect
	github.com/getsentry/sentry-go v0.13.0 // indirect
	github.com/gin-contrib/sse v0.1.0 // indirect
	github.com/gin-gonic/gin v1.7.7 // indirect
	github.com/go-ole/go-ole v1.2.6 // indirect
	github.com/go-playground/locales v0.14.0 // indirect
	github.com/go-playground/universal-translator v0.18.0 // indirect
	github.com/go-playground/validator/v10 v10.10.1 // indirect
	github.com/go-task/slim-sprig v0.0.0-20210107165309-348f09dbbbc0 // indirect
	github.com/gobuffalo/logger v1.0.6 // indirect
	github.com/gobuffalo/packd v1.0.1 // indirect
	github.com/godbus/dbus/v5 v5.1.0 // indirect
	github.com/gogo/protobuf v1.3.2 // indirect
	github.com/golang/glog v1.0.0 // indirect
	github.com/golang/protobuf v1.5.2 // indirect
	github.com/golang/snappy v0.0.4 // indirect
	github.com/google/go-github v17.0.0+incompatible // indirect
	github.com/google/go-querystring v1.1.0 // indirect
	github.com/google/gopacket v1.1.19 // indirect
	github.com/google/uuid v1.3.0 // indirect
	github.com/hashicorp/go-uuid v1.0.3 // indirect
	github.com/hashicorp/golang-lru v0.5.4 // indirect
	github.com/huin/goupnp v1.0.3 // indirect
	github.com/ipfs/go-cid v0.1.0 // indirect
	github.com/ipfs/go-ipfs-util v0.0.2 // indirect
	github.com/ipfs/go-log/v2 v2.5.1 // indirect
	github.com/jackpal/go-nat-pmp v1.0.2 // indirect
	github.com/jbenet/go-temp-err-catcher v0.1.0 // indirect
	github.com/jbenet/goprocess v0.1.4 // indirect
	github.com/jcmturner/aescts/v2 v2.0.0 // indirect
	github.com/jcmturner/dnsutils/v2 v2.0.0 // indirect
	github.com/jcmturner/gofork v1.0.0 // indirect
	github.com/jcmturner/gokrb5/v8 v8.4.2 // indirect
	github.com/jcmturner/rpc/v2 v2.0.3 // indirect
	github.com/json-iterator/go v1.1.12 // indirect
	github.com/karrick/godirwalk v1.16.1 // indirect
	github.com/klauspost/compress v1.15.1 // indirect
	github.com/klauspost/cpuid/v2 v2.0.12 // indirect
	github.com/knadh/koanf v1.4.1 // indirect
	github.com/koron/go-ssdp v0.0.2 // indirect
	github.com/kr/pretty v0.3.0 // indirect
	github.com/kr/text v0.2.0 // indirect
	github.com/leodido/go-urn v1.2.1 // indirect
	github.com/libp2p/go-buffer-pool v0.0.2 // indirect
	github.com/libp2p/go-cidranger v1.1.0 // indirect
	github.com/libp2p/go-conn-security-multistream v0.3.0 // indirect
	github.com/libp2p/go-eventbus v0.2.1 // indirect
	github.com/libp2p/go-flow-metrics v0.0.3 // indirect
	github.com/libp2p/go-libp2p-asn-util v0.1.0 // indirect
	github.com/libp2p/go-libp2p-blankhost v0.3.0 // indirect
	github.com/libp2p/go-libp2p-mplex v0.6.0 // indirect
	github.com/libp2p/go-libp2p-nat v0.1.0 // indirect
	github.com/libp2p/go-libp2p-noise v0.3.0 // indirect
	github.com/libp2p/go-libp2p-pnet v0.2.0 // indirect
	github.com/libp2p/go-libp2p-quic-transport v0.17.0 // indirect
	github.com/libp2p/go-libp2p-resource-manager v0.2.0 // indirect
	github.com/libp2p/go-libp2p-swarm v0.10.2 // indirect
	github.com/libp2p/go-libp2p-tls v0.4.0 // indirect
	github.com/libp2p/go-libp2p-transport-upgrader v0.7.1 // indirect
	github.com/libp2p/go-libp2p-yamux v0.8.2 // indirect
	github.com/libp2p/go-mplex v0.6.0 // indirect
	github.com/libp2p/go-msgio v0.1.0 // indirect
	github.com/libp2p/go-nat v0.1.0 // indirect
	github.com/libp2p/go-netroute v0.2.0 // indirect
	github.com/libp2p/go-openssl v0.0.7 // indirect
	github.com/libp2p/go-reuseport v0.1.0 // indirect
	github.com/libp2p/go-reuseport-transport v0.1.0 // indirect
	github.com/libp2p/go-stream-muxer-multistream v0.4.0 // indirect
	github.com/libp2p/go-tcp-transport v0.5.1 // indirect
	github.com/libp2p/go-ws-transport v0.6.0 // indirect
	github.com/libp2p/go-yamux/v3 v3.1.0 // indirect
	github.com/linxGnu/grocksdb v1.7.0 // indirect
	github.com/lucas-clemente/quic-go v0.27.0 // indirect
	github.com/markbates/errx v1.1.0 // indirect
	github.com/markbates/oncer v1.0.0 // indirect
	github.com/markbates/safe v1.0.1 // indirect
	github.com/marten-seemann/qtls-go1-16 v0.1.5 // indirect
	github.com/marten-seemann/qtls-go1-17 v0.1.1 // indirect
	github.com/marten-seemann/qtls-go1-18 v0.1.1 // indirect
	github.com/marten-seemann/tcp v0.0.0-20210406111302-dfbc87cc63fd // indirect
	github.com/mattn/go-colorable v0.1.12 // indirect
	github.com/mattn/go-isatty v0.0.14 // indirect
	github.com/matttproud/golang_protobuf_extensions v1.0.2-0.20181231171920-c182affec369 // indirect
	github.com/miekg/dns v1.1.48 // indirect
	github.com/mikioh/tcpinfo v0.0.0-20190314235526-30a79bb1804b // indirect
	github.com/mikioh/tcpopt v0.0.0-20190314235656-172688c1accc // indirect
	github.com/minio/blake2b-simd v0.0.0-20160723061019-3f5f724cb5b1 // indirect
	github.com/minio/sha256-simd v1.0.0 // indirect
	github.com/mitchellh/copystructure v1.2.0 // indirect
	github.com/mitchellh/mapstructure v1.4.3 // indirect
	github.com/mitchellh/reflectwalk v1.0.2 // indirect
	github.com/moby/term v0.0.0-20210619224110-3f7ff695adc6 // indirect
	github.com/modern-go/concurrent v0.0.0-20180306012644-bacd9c7ef1dd // indirect
	github.com/modern-go/reflect2 v1.0.2 // indirect
	github.com/morikuni/aec v1.0.0 // indirect
	github.com/multiformats/go-base32 v0.0.4 // indirect
	github.com/multiformats/go-base36 v0.1.0 // indirect
	github.com/multiformats/go-multiaddr-dns v0.3.1 // indirect
	github.com/multiformats/go-multiaddr-fmt v0.1.0 // indirect
	github.com/multiformats/go-multibase v0.0.3 // indirect
	github.com/multiformats/go-multihash v0.1.0 // indirect
	github.com/multiformats/go-multistream v0.2.2 // indirect
	github.com/multiformats/go-varint v0.0.6 // indirect
	github.com/nxadm/tail v1.4.8 // indirect
	github.com/oasisprotocol/ed25519 v0.0.0-20210505154701-76d8c688d86e // indirect
	github.com/onsi/ginkgo v1.16.5 // indirect
	github.com/opencontainers/go-digest v1.0.0 // indirect
	github.com/opencontainers/image-spec v1.0.1 // indirect
	github.com/opencontainers/runtime-spec v1.0.3-0.20210326190908-1c3f411f0417 // indirect
	github.com/panjf2000/ants/v2 v2.4.8 // indirect
	github.com/patrickmn/go-cache v2.1.0+incompatible // indirect
	github.com/pbnjay/memory v0.0.0-20210728143218-7b4eea64cf58 // indirect
	github.com/petermattis/goid v0.0.0-20220331194723-8ee3e6ded87a // indirect
	github.com/pierrec/lz4 v2.6.1+incompatible // indirect
	github.com/pmezard/go-difflib v1.0.0 // indirect
	github.com/prometheus/client_model v0.2.0 // indirect
	github.com/prometheus/common v0.33.0 // indirect
	github.com/prometheus/procfs v0.7.3 // indirect
	github.com/raulk/clock v1.1.0 // indirect
	github.com/raulk/go-watchdog v1.2.0 // indirect
	github.com/rcrowley/go-metrics v0.0.0-20201227073835-cf1acfcdf475 // indirect
	github.com/rogpeppe/go-internal v1.8.1 // indirect
	github.com/sasha-s/go-deadlock v0.3.1 // indirect
	github.com/segmentio/fasthash v1.0.3 // indirect
	github.com/sirupsen/logrus v1.8.1 // indirect
	github.com/spacemonkeygo/spacelog v0.0.0-20180420211403-2296661a0572 // indirect
	github.com/spaolacci/murmur3 v1.1.0 // indirect
	github.com/spf13/cast v1.4.1 // indirect
	github.com/tidwall/gjson v1.14.0 // indirect
	github.com/tidwall/match v1.1.1 // indirect
	github.com/tidwall/pretty v1.2.0 // indirect
	github.com/tklauser/go-sysconf v0.3.10 // indirect
	github.com/tklauser/numcpus v0.4.0 // indirect
	github.com/ugorji/go/codec v1.2.7 // indirect
	github.com/valyala/bytebufferpool v1.0.0 // indirect
	github.com/valyala/fasttemplate v1.2.1 // indirect
	github.com/whyrusleeping/multiaddr-filter v0.0.0-20160516205228-e903e4adabd7 // indirect
	github.com/yusufpapurcu/wmi v1.2.2 // indirect
	go.uber.org/multierr v1.8.0 // indirect
	go.uber.org/zap v1.21.0 // indirect
	golang.org/x/exp v0.0.0-20220407100705-7b9b53b0aca4 // indirect
	golang.org/x/mod v0.6.0-dev.0.20220106191415-9b9b3d81d5e3 // indirect
	golang.org/x/sync v0.0.0-20210220032951-036812b2e83c // indirect
	golang.org/x/sys v0.0.0-20220408201424-a24fb2fb8a0f // indirect
	golang.org/x/text v0.3.7 // indirect
	golang.org/x/tools v0.1.10 // indirect
	golang.org/x/xerrors v0.0.0-20200804184101-5ec99f83aff1 // indirect
	google.golang.org/genproto v0.0.0-20220407144326-9054f6ed7bac // indirect
	google.golang.org/grpc v1.45.0 // indirect
	google.golang.org/protobuf v1.28.0 // indirect
	gopkg.in/tomb.v1 v1.0.0-20141024135613-dd632973f1e7 // indirect
	gopkg.in/yaml.v2 v2.4.0 // indirect
	gopkg.in/yaml.v3 v3.0.0-20210107192922-496545a6307b // indirect
	lukechampine.com/blake3 v1.1.7 // indirect
)
